id,value
Glen Smith,2
Boaz Leskes,958
Martijn van Groningen,1276
kel,6
Yannick Welsch,243
Simon Willnauer,2495
Nhat,1
shaulzorea,3
Karel Minarik,1
Jason Tedor,1569
Nik Everett,1081
Deb Adair,22
Adrien Grand,1095
Thomas Kappler,1
Karel Minarik,26
Clinton Gormley,1043
Jim Ferenczi,291
Steve Kotsopoulos,1
Md. Abdulla-Al-Sun,3
Jim Ferenczi,15
Alexander Kazakov,25
Luca Cavanna,191
David Pilato,1410
Tim Brooks,60
Uwe Schindler,73
David Roberts,10
Shane Connelly,15
Dimitrios Liappis,14
markwalkom,13
Amine Daï,1
David Turner,3
Tal Levy,152
Hendrik Muhs,3
Colin Goodheart-Smithe,360
James Baiera,11
Armin Braun,2
olcbean,8
Christoph Büscher,657
Jay Modi,54
Jiri Tyr,1
javanna,1362
Ryan Ernst,1311
wasserman,1
lcawley,11
Tahmim Ahmed Shibli,1
Tanguy Leroux,327
Igor Motov,422
Jack Conradson,149
Peter Dyson,7
Michael Basnight,11
Claudio Bley,1
Itamar Syn-Hershko,12
Bernd,1
Daniel A. Ochoa,1
Ivan Brusic,12
Russ Cam,11
Yu,4
mohit,1
etiennecarriere,1
jiangzhuolin,1
Kevin Risden,1
Lee Hinman,42
Antonio Matarrese,6
Andy Bristol,9
Lee Hinman,493
marcocova,1
Alexander Reelsen,343
Tim Vernum,3
Matt Weber,22
Sergey Galkin,6
Stuart Neivandt,2
Marco Monaco,1
Albert Zaharovits,1
Christoph Wurm,9
Atothendrew,1
michaelbaamonde,1
Zachary Tong,20
desmorto,1
Glen Smith,13
R Tsien,1
Jordan Sissel,1
Berg Lloyd-Haig,1
dlindeque,1
hanbj,2
Albert Zaharovits,2
JapSeyz,1
Daniel Mitterdorfer,22
Ian Fisk,1
Zachary Tong,7
Aron Szanto,1
honourednihilist,1
Sam Cinco,1
propulkit,1
Scott Somerville,2
Bodecker DellaMaria,2
Neil Rickards,1
Herman Schaaf,1
DeDe Morton,12
joachimdraeger,3
Viral-Inc,1
Ali Beyad,249
Wesley Merkel,1
Jun Ohtani,86
markharwood,57
Drew Raines,9
Andreas Gebhardt,1
Chris Earle,17
Robin Clarke,6
Marcus Wittig,1
Daniel Mitterdorfer,13
dkimdon,1
Spencer,12
Nathan Taylor,1
Guillaume Le Floch,6
David Kyle,1
David Causse,2
John Murphy,1
Adis Nezirović,1
Sergey Novikov,3
jaymode,9
Koen De Groote,13
Pandiyan Murugan,1
Sanne Grinovero,1
Andrey Groshev,1
Eli Skeggs,1
Christian Hofstaedtler,1
Yibin Lin,1
Alex Benusovich,7
Chris Earle,30
Thomas Decaux,4
Masaru Hasegawa,14
David Cho-Lerat,3
propulkit,2
mashudong,1
Brian Lesperance,1
António Ribeiro,1
Nicholas Knize,119
archana,1
Kristen,1
Oleksandr Chychkan,1
Jack Conradson,5
George Papadrosou,1
Luis Majano,1
Vlad Holubiev,1
Kunal Kapoor,3
Dimitris Athanasiou,5
Byron Voorbach,1
Chris Ivens,1
Isabel Drost-Fromm,125
Suhas Karanth,4
Anupam,1
Winston Ewert,1
Toby McLaughlin,1
Till Backhaus,1
Danilo Akamine,1
Nilabh Sagar,2
farisk,1
Michael Despotopoulos,1
Fabien Baligand,1
Areek Zillur,213
makeyang,3
Iliiaz Akhmedov,1
Loek van Gool,3
BUPTAnderson,1
Sakthipriyan Vairamani,6
Emir Beganović,1
Himanshu Bhandoh,1
Andrew Selden,1
Ulugbek Baymuradov,1
Dmitriy Troyan,1
Jayant Ameta,3
Alex Chan,2
wyukawa,1
Abdon Pijpelink,1
Stuart Neivandt,1
Marios Trivyzas,1
AdityaJNair,1
Stefan Gorgiovski,1
Honza Král,111
Florian Hopf,8
Minwoo Kim,1
Max Goodridge,1
Nikiforos Botis,1
Jordan Kiang,1
Alex Lattas,1
Arnaud Venturi,1
Robin Stocker,1
Sönke Liebau,1
Pavel Chertorogov,2
NFM,1
Shashank Singh,1
msancho,1
Randall Britten,3
gabriel-tessier,6
Jürgen van Dijk,1
Shai Erera,3
sabi0,2
Christopher Best,1
mms-programming,1
Martin Scholz,2
Yuhao Bi,3
Andreas Roussos,1
sungjunyoung,1
AlexNodex,2
Catherine Snow,1
Giuseppe,1
Sebastian,1
Jonathan D Strootman,1
Jordan Robinson,1
Chris Buonocore,1
Rob Moore,1
alamzeeshan,1
Shubham Aggarwal,2
Mathieu Berube,1
Alex Bumbu,1
Anil Bawa-Cavia,1
srgclr,1
William Webber,3
Folusho Oladipo,2
Patryk Krawaczyński,1
Michael McCandless,43
Ke Li,1
Elijah,3
Alex,1
Greg Marzouka,34
Elijah,1
Jake,2
maciejkula,1
Francesc Gil,2
Simon Willnauer,329
Chris Adams,1
Gytis Šk,2
Achraf,2
A.N,1
henakamaMSFT,1
animageofmine,1
Johannes Kanavin,1
Jason Veatch,2
Mike Dias,1
Dave Richardson,1
Paweł Bobruk,1
gameldar,3
Stéphane Campinas,1
Gameldar,1
Nic Palmer,3
Rui Hu,1
Alexander Lin,11
Grzegorz Gajos,1
Pablo Musa,1
Aaron Spiegel,1
makeyang,4
Isabel Drost-Fromm,58
Matt Sicker,1
yutaono,1
Artur Nowosielski,1
Matthew Haugen,1
Matias Anaya,1
Juan Paulo Gutierrez,1
Jared Carey,2
Guilherme,1
Thibault Pierre,1
Nikhil Patel,1
Lucas Bremgartner,2
Allen Torres,1
nelsonSchwarz,1
Ke Li,1
Arthur,1
Adrin Jalali,8
Sho Yoshida,1
Carney Wu,1
Ahmad Ragab,1
umeshdangat,1
Erel2,1
Trey Tacon,1
Chris Fritz,1
Ludovic Dubost,1
Jeffery Bradberry,1
Shubham Aggarwal,2
ismael-hasan,1
Luca Wintergerst,2
Bryan Karlovitz,1
Sumit Gupta,1
Sandeep Kanabar,1
lslxdx,1
Nguyễn Thanh Tiến,1
Joeyn414,1
Andreas Creten,1
Jayson Minard,4
Adriel Dean-Hall,1
Craig Squire,1
LakumiNarayanan,1
Stanislav Mamontov,1
Britta Weber,38
Li Weinan,1
Praveen Shukla,1
Lukáš Vlček,29
Fanfan,2
Joshua Rich,3
Quinn Shanahan,1
Joshua Rich,2
kunal642,1
Uli Fahrer,1
Thibaud BARDIN,2
brandonkearby,1
Pascal Borreli,2
Daniel Mitterdorfer,85
Tom Manterfield,1
Anatolii Stepaniuk,1
Martijn Laarman,34
Pius,7
Britta Weber,366
Alexander Guz,3
gfyoung,12
Tobias Günther,1
Michael Nitschinger,2
Yevhen Bobrov,1
chico chen,1
antonisppn,1
Andrzej Wisłowski,4
Greg Ichneumon Brown,2
nrichers,1
Stian Lindhom,1
Munish Goyal,3
Nicolas Ruflin,4
Josh Becker,1
Xiang Chen,5
Sarwar Bhuiyan,3
Dominik Stadler,3
Mike McCandless,31
ddddn,1
Thiago Souza,6
polyfractal,84
Ludo,1
Ryan Biesemeyer,1
Mary,1
Robert Muir,245
jaymode,47
Robert Muir,866
Brandon Wulf,1
adityasinghraghav,1
kingrhoton,2
Jared McQueen,1
Tyler Langlois,4
Mathias Fussenegger,7
Michael Sander,2
Sho Minagawa,1
Justin Patrin,1
Lee Drengenberg,3
Christoph Wurm,2
Leon Weidauer,1
jalvar08,1
Paul Echeverri,5
Jerry Liu,1
Damien Alexandre,3
Eric Sherman,1
debadair,7
Jeff Evans,2
Mateusz Rzepa,1
Philips Kokoh,1
Vladimir Kovpak,1
Aaron Mildenstein,2
eratio08,2
trangvh,1
Stefan Scherer,1
GUILLAUME GROSSETIE,1
G. Richard Bellamy,1
spalger,2
Julien Pivotto,1
Kyle Gochenour,1
Rodolfo Martinez,1
Olivier Bourgain,10
John Barker,1
Gabriel Moskovicz,4
jasonquick,1
Zack Dever,1
Johnny Lim,2
Radovan Ondas,1
Jihun No,2
Kelsey DeJesus-Banos,1
Todd Dicken,1
Josef Salyer,1
Robin Joseph,1
Mathias Fußenegger,1
Rafał Bigaj,1
Mike Buhot,1
Sergii Golubev,9
Xu Zhang,30
Xu Zhang,13
ericamick,4
Michael Stockerl,2
Danilo Vaz,1
LeonardGC,1
bloublou,1
Sebastian Utz,4
Herbert Fischer,1
val,1
Daniil Penkin,1
Ibrahim Awwal,1
Dmitrii Izgurskii,1
Jimmy Jones,1
James Bertouch,4
Mahmoud Lababidi,1
Jeff,1
Dimitrios Liappis,3
Joe Hillenbrand,1
Joe Hillenbrand,1
Camilo Diaz Repka,5
Yanjun Huang,1
Dan Jasek,1
Nicolas Trésegnie,1
pengqiuyuan,1
Philip Ottesen,1
Simon Willison,1
Thomas Hunter II,1
Ed Winn,1
Andrew Cholakian,1
Dongjoon Hyun,9
Christopher Taylor,1
George P. Stathis,7
Vector241-Eric,1
James Kerr,1
Geoff Wagstaff,1
Yannick Welsch,113
Felipe Forbeck,7
Andrey Ryaguzov,1
Sylwester Lachiewicz,2
evanfreed,1
Konstantin Delchev,1
Henrik Nordvik,2
Robert,3
Laurent Defert,1
gaelL,1
Rhommel,2
Chris Moultrie,1
Andrej Kazakov,3
Russell Cohen,1
Konrad Beiske,12
Prayag Verma,1
Ofir,3
Kevin Adams,1
Rachit Gupta,1
Kiyan,1
Ryan Schneider,1
Michael McCandless,310
Jason Bryan,3
Nick,3
Imran Azad,1
Eugene Pirogov,1
David Roberts,1
Devi,1
omiend,1
mysqlguru,1
Dave,1
socurites,2
kwangsik,1
Costin Leau,32
soinlv,1
umeku,1
Andrew Williams,1
Paulo Martins,1
Myll,1
Jim Ferenczi,3
Ben Tse,1
Gao Yingkai,1
Ryan,2
Xavier Coulon,1
Jochen Schalanda,1
Shintaro Kaneko,1
Jason Spafford,1
tomoya yokota,1
Jimmi Dyson,1
Shikhar Bhushan,1
William Bowling,2
William,1
Jamie McCarthy,1
craigwi,1
Kopylov German,1
J Grubb,1
Krishna Raj,2
Peter Lebedev,1
Vishnu Valleru,1
Shaunak Kashyap,8
girirajsharma,1
KangYongKyun,1
Scott Chamberlain,2
David Tvaltchrelidze,1
Brady Vidovic,1
jurgc11,1
Jeff Destine,1
Christian Haudum,1
jmferrer,1
Philipp Bogensberger,2
Jason O'Donnell,6
Hendrik Saly,3
Björn Ali Göransson,1
bharvi,2
Tim Schlechter,2
Andreas Kohn,12
Kevin Kirsche,2
Patrick Kaufmann,1
Michele Palmia,1
Alex,1
Jose Diaz-Gonzalez,1
André Carvalho,14
Thomas Cucchietti,3
Alex Chow,1
Taehee Kim,1
ulkas,1
Antonio Bonuccelli,3
Chris Earle,18
Ryan Schneider,3
Mikko Nylén,1
Robert Berg,1
Scott Kingsley Clark,1
Michael Schonfeld,2
Clément Tourrière,2
Alex Ksikes,80
Pedro Andujar,1
Alexander Pepper,1
ramky1982,1
Paul Echeverri,2
Stephen Samuel,2
Ivannikov Kirill,15
Marshall Bockrath-Vandegrift,1
Jim Hooker,2
Dan Tuffery,2
Fabian Selles Rosa,1
Murilo Pereira,2
Ian Truslove,1
Jason Tedor,1
kakakakakku,2
Harish Kayarohanam,2
Andrey Fadeyev,3
saschamarkus,1
Scott Florentino,2
keety,1
Asimov4,2
Sylvain Zimmer,2
oyiadom,3
loopmachine,1
Scott Florentino,1
Roland,8
Jamie White,1
Dave Parfitt,3
Dave Parfitt,4
Shay Banon,4779
khiraiwa,1
Alexander Clare,2
Chris Roche,1
uboness,92
Andrew Selden,3
aleph-zero,7
Joshua Rich,1
John Roesler,1
johnfrederik,1
Israel Ekpo,1
johnpickett,1
Jakob Reiter,1
jhr007,1
Hakan Özler,2
astefan,1
caldwecr,2
William Li,1
Ruslan Boyarskiy,1
Jörg Prante,11
David Pursehouse,3
Wolfgang Karall,1
Carol Willing,1
Artur Cygan,1
Johannes Barthelmes,1
Iarwa1n,1
Nirmal Chidambaram,1
Christoph Büscher,31
Colin Goodheart-Smithe,171
srogljan,1
Steve Kearns,1
Chelsea  Lura,1
Nirmal Chidambaram,2
Timur,1
Kis Marcell,1
Gasol Wu,1
Spyros Kapnissis,1
jzinner,1
Eduardo Gurgel,1
Yannick Welsch,1
Nicholas Canzoneri,2
Dawid Weiss,7
josephwolnskipn,1
Colin Goodheart-Smithe,4
Clément Salaün,1
Mikael Mattsson,1
Karel Minarik,12
Brian Murphy,38
minde-eagleeye,1
navins,1
Christine,1
Mark Mulder,1
Mehdi Mollaverdi,1
Adam Mollenkopf,1
Oliver Eilhard,2
Benoit Delbosc,2
Mal Curtis,1
Alexander,1
Julie Tibshirani,1
André Hänsel,1
Leonardo Menezes,6
marko asplund,1
blackorzar,1
Stefan,1
joelbourbon,1
Christian Rohling,1
Dustin Shiver,1
Maurizio De Magnis,1
B1nj0y,1
Guillaume Dievart,1
Eike Dehling,1
Ryan Schneider,1
Reuben Sutton,5
Lucas Chi,1
David Wittman,1
Patrick Peschlow,5
Sebastian Monte,1
Njal Karevoll,9
Devin Chollak,2
popovae,1
Corey Daley,1
Al Lefebvre,1
mikemccand,1
Petr Bela,1
paul-e-cooley,1
Matthias Wahl,2
Matias Tealdi,1
Pius,3
Geoff Bourne,1
cgp,1
IsaacHaze,1
orenash,1
Jerry,1
Marcin Matlaszek,1
Serhiy Suprun,1
Adam,2
Blake Niemyjski,1
Victor Buldakov,1
gseng,2
Alfredo Serafini,1
Kenta Okamoto,1
J Charitopoulos,2
Oliver,1
simaov,2
Sourav Mitra,1
Christian Verkerk,2
Aske Hansen,1
Andrew Ochsner,1
Thomas Eschemann,1
jhtimmins,1
sweetest,1
Dmitry Polushkin,1
David Haney,2
Tomoya Hirano,1
Mikhail Korobov,2
dtpeacock,1
Janmejay Singh,1
Tomas Varaneckas,1
Guillaume Hiron,1
Yasir Bamarni,1
Pablo Díaz-López,1
Peter Johnson a.k.a. insertcoffee,2
Joao Duarte,2
Timothy Perisho,1
spapin,1
Ayush,1
Simone Scarduzio,1
Satoshi Kimura,1
Peter Fabian Mitchell,1
Alexander Clausen,1
Adam Menges,1
Ashraf Sarhan,1
Kevin Kluge,2
Patrick Koenig,2
Thilo Fromm,3
tristanbob,2
Louis Sautier,1
John Michael Luy,4
Sebastian Ziebell,4
pmamat,1
Nils Dijk,2
Matt Hughes,1
unknown,1
dw,2
Laurent Broudoux,1
mdzor,2
barbasa,1
Alban Perillat-Merceroz,1
Mariam Hakobyan,1
ananich,1
Bruno Renié,3
Ken Wu,2
Ryan Doyle,1
nwarz,1
Olivier Favre,6
Vidar Kongsli,1
Philip McMahon,1
Joel Taddei,1
Mark Walkom,2
Israel Tsadok,3
jdyer09,1
Chris Mattmann,2
Veres Lajos,1
printercu,1
Aarni Koskela,1
Alex Leonhardt,1
astefan,1
Satoyuki Tsukano,2
cmpich,2
Jérémy Lecour,1
Dmitriy Khvatov,1
Spencer,10
Marcin Mikosik,1
Randy D. Wallace Jr,1
Ron DuPlain,1
Brian Kim,1
Andrei Kolosok,2
Mark J Greene,1
Erik Wyatt,1
Ayumi Yu,1
Ryan Grimm,1
Lukasz Dywicki,1
wmx3ng,1
Andrew O'Brien,3
Josh Kuhn,1
Son,1
Derek Haynes,1
Erik Ringsmuth,1
sp836490,1
Jake Buob,2
Hang Su,1
Suyog Rao,2
Xiao Yu,3
Paul Pearcy,1
HenrikOssipoff,1
Thom Dixon,1
Cristiano Fontes,3
corochoone,2
nandakishore15,1
Zachary Wasserman,1
Elie A,3
Jordan Snodgrass,1
Philipp Jardas,1
Ulrich Reffle,1
smayzak,4
ansj,1
Andrew Selden,21
Tanvir Alam,1
pachanta,1
Dominik Surowiecki,1
shrinidhichaudhari,1
Jon Dokulil,1
mdalton,1
Renaud AUBIN,1
Michael Brackx,1
Philip Wills,1
londocr,1
Peter Johnson @insertcoffee,3
Carsten Brandt,2
Konrad Feldmeier,4
Mpampis Kostas,2
rdpatil4,1
Phil Freo,1
Akshay Kapoor,1
Chris Allen,1
Gheorghita Catalin Bordianu,1
Thomas Peuss,1
baldurh,1
Simon (Big Chief) Morley,5
bitsofinfo,1
Skye Book,1
Stefan Antoni,1
Kurt Hurtado,1
Spencer Alger,7
Brian Altenhofel,1
Justin Honold,1
rendel,1
babeya,1
Mahesh Paolini-Subramanya,2
Medcl,1
Peter Kim,1
matt-preston,1
Bill Hwang,27
Malte Schirnacher,2
Iulia Pasov,2
Guillaume Nodet,1
Areek Zillur,1
Valdis Rigdon,1
Roman Sanchez,1
Naoki Orii,1
Nick Steele,1
Andrii Gakhov,1
Shinsuke Sugaya,1
Shikhar Bhushan,1
Chris Earle,6
hanneskaeufler,1
Matthew L Daniel,2
jnguyenx,1
Ian Babrou,1
Duncan Angus Wilkie,1
Robert Muir,4
mahdeto,1
Andrew Raines,80
Peter Burkholder,1
Phil Wills,1
Fitblip,1
Chris,1
Matt Janssen,1
Volker Fröhlich,1
stephlag,5
Daniel Winterstein,1
shadow000fire,1
Luke Fender,1
fransflippo,1
Evgeniy Sokovikov,1
Yervand Aghababyan,1
Steve Fuller,2
Jad Naous,1
Christian Wolfe,1
Philip Stevens,1
Rob Young,1
violuke,3
Kevin Wang,22
darkwarriors,1
Patrik Ragnarsson,1
Gaurav Arora,2
James Yu,2
leonardo menezes,1
Wilkes Joiner,1
mateusz_kaczynski,1
Alex Brasetvik,2
Tiago Alves Macambira,2
ericheiker,1
matdere,1
Benjamin Devèze,36
Rashid Khan,1
Alex Marandon,1
cccabot,1
Kurt Hurtado,2
Richard Boulton,3
田传武,1
Keiji Yoshida,1
Matthieu Bacconnier,1
Audrey,2
Radu Gheorghe,2
Igal,2
Ali Bozorgkhan,1
Mansur Ashraf,1
Holger Hoffstätte,10
Binh Ly,5
Uwe Dauernheim,1
Benoss,1
Samuel Molinari,1
Sean Gallagher,5
Christoph Frick,1
Kouhei Sutou,1
Scott Wilkerson,1
Yousef,2
Richard Pijnenburg,4
Miltos Allamanis,2
Karl Meisterheim,1
Daniel Winterstein,1
Timo Rantalaiho,1
kul,1
Hannes Korte,1
Richard Louapre,1
Florian Schilling,22
David Smiley,1
Dridi Boukelmoune,1
Kenta Suzuki,3
Randy Stauner,2
lzhoucs,1
Justin Etheredge,1
EvanYellow,1
rphadake,1
Mohsin Husen,1
Derek Slife,1
Hugues Malphettes,1
James Brook,1
Holger Hoffstätte,1
hura,1
Kelsey Francis,1
jayesh.modi,1
constantijn,1
Lars Francke,3
Brian Yoder,1
Oleg Anashkin,1
Mihnea Dobrescu-Balaur,1
tstibbs,1
Evan Wong,1
Mark Conlin,1
Chris Zelenak,1
Kendall Gifford,1
Paul Horn,1
Florian Gilcher,3
Andy Goldstein,2
b.hwang,4
Alexander Reelsen,2
dpen2000,1
Rob Cherry,1
Benjamin Vetter,2
LightGuard,1
ohnorobo,1
Chris Simpson,1
Grégory Quatannens,1
Sebastian Geidies,2
Diego Ongaro,1
Karel Minarik,130
Markus Fischer,2
Kevin Kluge,1
Conrad Pankoff,1
Joe Pollard,1
Andrew Gross,1
Mark Elliot,1
Antoine Rey,1
Andrew Ochsner,1
Cory G Watson,1
Vojtech Hyza,1
Ben McCann,3
Dan Everton,1
Opak Alex,1
Helton Alponti,1
Josh Canfield,1
Blake Smith,1
Bogdan Dumitrescu,1
Subhash Gopalakrishnan,1
Jonathan CHAMPION,1
Ryan S. Brown,1
Bernhard K. Weisshuhn,1
gtt116,1
iksnalybok,2
matthewarkin,1
Brad Fritz,1
Louis Gueye,1
Dan Everton,1
Frédéric Camblor,1
Gianni O'Neill,1
Manuel Bernhardt,1
Peter Moberg,1
Cédric HOURCADE,3
skymeyer,1
Robin Hughes,2
Luca Cavanna,1
Brett Dargan,1
Luca Cavanna,1
Marcus Granström,1
Dariusz Gertych,1
ejain,1
Christoph Kempen,1
Leslie Wittig Quintanilla,3
Alexander Kahn,1
Derek McNeil,1
Anton Hägerstrand,1
Lucas Ward,1
Vinod Chandru,1
adavis,2
Dmitry Zhlobo,1
Juan David Pastas,1
Drew Raines,4
Andrii Gakhov,1
tristanbuckner,1
Jeremy Jongsma,1
Ilya Nazarov,1
Jeffrey Gerard,1
morsegel,1
Florian Schilling,1
Daniel Muller,1
Jilles van Gurp,1
Dave Brosius,1
Phil Kates,1
Alex Lambert,1
Mark Gallop,4
Chris Male,9
Nicholas Tung,1
uboness,7
Aaron Dixon,1
Scott MacVicar,1
Henrik Lindström,2
Chris Male,5
Kenn Knowles,1
Sean Laurent,1
Jacob Evans,1
Martijn van Groningen,4
Andrius Juozapaitis,2
Nicolas Lalevée,18
Petri Lehtinen,1
Ozgur Orhan,1
Aurelien Requiem,5
Jordi Boggiano,1
Radu Gheorghe,1
Stefan Fussenegger,1
Nicolas Huray,2
Fredrik Sundberg,1
Holden Karau,5
Carnell Washington Jr,1
alheim,1
Barnaby Gray,1
Henac,2
barsk,2
Jan Fiedler,1
Peter,11
Damien Hardy,2
Edward Wang,1
bbgordonn,2
Miquel Rodríguez Telep / Michael Rodríguez-Torrent,1
George Chatzigeorgiou,1
Aaron Sutter,1
Aman Gupta,1
Jeremie BORDIER,2
Hiroyuki Ikezoe,1
Erick Tryzelaar,3
Pedro Alves,1
Pål Brattberg,1
Austin McKinley,1
Benjamin Devèze,7
David Pilato,3
Jürgen Kartnaller,1
LocJayMP,1
acerb,1
Fehmi Can SAĞLAM,1
Jonathan R H Evans,1
Jonathan Evans,2
Austin McKinley,1
melix,2
belevian,2
Paul_Loy,6
René Scheibe,1
Bobby T,1
webdevuser,2
Adam Creeger,1
Joey Geiger,1
Benoit Sigoure,2
unknown,1
Charles Duffy,1
Alberto Paro,4
Edward Dale,2
Adriano Ferreira,9
harryf,1
Tim Dysinger,2
Mahendra M,1
Mahendra M,1
Ask Bjørn Hansen,1
